\relax 
\catcode `"\active 
\babel@aux{polish}{}
\@writefile{toc}{\contentsline {section}{\numberline {1}Wprowadzenie}{5}}
\@writefile{toc}{\contentsline {section}{\numberline {2}Podobne oprogramowanie}{6}}
\@writefile{toc}{\contentsline {subsection}{\numberline {2.1}Synaptic}{6}}
\@writefile{lof}{\contentsline {figure}{\numberline {1}{\ignorespaces Mened\IeC {\.z}er pakiet\IeC {\'o}w Synaptic\relax }}{6}}
\@writefile{toc}{\contentsline {subsection}{\numberline {2.2}Gconf Cleaner}{7}}
\providecommand*\caption@xref[2]{\@setref\relax\@undefined{#1}}
\newlabel{gconf-cleaner-2}{{\caption@xref {gconf-cleaner-2}{ on input line 107}}{7}}
\newlabel{sub@gconf-cleaner-2}{{}{7}}
\newlabel{gconf-cleaner-1}{{\caption@xref {gconf-cleaner-1}{ on input line 111}}{7}}
\newlabel{sub@gconf-cleaner-1}{{}{7}}
\@writefile{lof}{\contentsline {figure}{\numberline {2}{\ignorespaces Gconf Cleaner\relax }}{7}}
\@writefile{toc}{\contentsline {subsection}{\numberline {2.3}Cruft}{7}}
\@writefile{toc}{\contentsline {subsection}{\numberline {2.4}GtkOrphan}{8}}
\@writefile{lof}{\contentsline {figure}{\numberline {3}{\ignorespaces Gtk Orphan\relax }}{8}}
\@writefile{toc}{\contentsline {subsection}{\numberline {2.5}Sweeper}{8}}
\@writefile{lof}{\contentsline {figure}{\numberline {4}{\ignorespaces Sweeper\relax }}{9}}
\@writefile{toc}{\contentsline {subsection}{\numberline {2.6}BleachBit}{9}}
\@writefile{lof}{\contentsline {figure}{\numberline {5}{\ignorespaces BleachBit\relax }}{10}}
\@writefile{lof}{\contentsline {figure}{\numberline {6}{\ignorespaces BleachBit\relax }}{11}}
\@writefile{toc}{\contentsline {subsection}{\numberline {2.7}Stacer}{11}}
\@writefile{lof}{\contentsline {figure}{\numberline {7}{\ignorespaces Stacer - ekran g\IeC {\l }\IeC {\'o}wny\relax }}{12}}
\@writefile{lof}{\contentsline {figure}{\numberline {8}{\ignorespaces Stacer - oczyszczanie dysku\relax }}{13}}
\@writefile{toc}{\contentsline {section}{\numberline {3}Filesystem Cleaner}{14}}
\@writefile{toc}{\contentsline {subsection}{\numberline {3.1}Zarys dzia\IeC {\l }ania}{14}}
\@writefile{toc}{\contentsline {subsection}{\numberline {3.2}Konfiguracja}{14}}
\@writefile{toc}{\contentsline {subsubsection}{\numberline {3.2.1}Opcje w wierszu polece\IeC {\'n}}{14}}
\@writefile{lol}{\contentsline {lstlisting}{\numberline {1}Opcje w wierszu polece\IeC {\'n}}{15}}
\@writefile{lol}{\contentsline {lstlisting}{\numberline {2}Rozszerzone opcje w wierszu polece\IeC {\'n}}{15}}
\@writefile{toc}{\contentsline {subsubsection}{\numberline {3.2.2}Plik konfiguracyjny}{17}}
\@writefile{lol}{\contentsline {lstlisting}{\numberline {3}Przyk\IeC {\l }adowy plik konfiguracyjny}{17}}
\@writefile{toc}{\contentsline {subsubsection}{\numberline {3.2.3}Eksport ustawie\IeC {\'n}}{18}}
\@writefile{toc}{\contentsline {subsection}{\numberline {3.3}Najwa\IeC {\.z}niejsze struktury danych}{19}}
\@writefile{lol}{\contentsline {lstlisting}{\numberline {4}Struktura podstawowa}{19}}
\@writefile{lol}{\contentsline {lstlisting}{\numberline {5}Struktura pliku}{21}}
\@writefile{lol}{\contentsline {lstlisting}{\numberline {6}Struktura katalogu}{21}}
\@writefile{lol}{\contentsline {lstlisting}{\numberline {7}Struktura filtra}{22}}
\@writefile{toc}{\contentsline {subsection}{\numberline {3.4}Dzia\IeC {\l }anie}{23}}
\@writefile{toc}{\contentsline {subsubsection}{\numberline {3.4.1}Skanowanie}{23}}
\@writefile{lol}{\contentsline {lstlisting}{\numberline {8}Syntaktyka funkcji ftw i nftw}{23}}
\@writefile{toc}{\contentsline {subsubsection}{\numberline {3.4.2}Montowanie}{24}}
\@writefile{toc}{\contentsline {subsubsection}{\numberline {3.4.3}Interakcja}{25}}
\@writefile{lof}{\contentsline {figure}{\numberline {9}{\ignorespaces Podgl\IeC {\k a}d wynik\IeC {\'o}w skanowania w mened\IeC {\.z}erze plik\IeC {\'o}w\relax }}{25}}
\@writefile{lof}{\contentsline {figure}{\numberline {10}{\ignorespaces Podgl\IeC {\k a}d wynik\IeC {\'o}w skanowania w wierszu polece\IeC {\'n}\relax }}{25}}
\@writefile{toc}{\contentsline {subsubsection}{\numberline {3.4.4}W\IeC {\l }a\IeC {\'s}ciwe wykonanie operacji}{26}}
\@writefile{lol}{\contentsline {lstlisting}{\numberline {9}Struktura operacji}{26}}
\@writefile{toc}{\contentsline {section}{\numberline {4}Filtry}{26}}
\@writefile{toc}{\contentsline {subsection}{\numberline {4.1}Pliki puste}{27}}
\@writefile{toc}{\contentsline {subsection}{\numberline {4.2}Pliki rzadkie}{27}}
\@writefile{lof}{\contentsline {figure}{\numberline {11}{\ignorespaces Przyk\IeC {\l }ad pliku rzadkiego\relax }}{27}}
\@writefile{toc}{\contentsline {subsection}{\numberline {4.3}Duplikaty}{28}}
\@writefile{toc}{\contentsline {subsection}{\numberline {4.4}Kategoryzacja}{29}}
\@writefile{toc}{\contentsline {subsection}{\numberline {4.5}W\IeC {\l }asne filtry}{30}}
\@writefile{toc}{\contentsline {section}{\numberline {5}Biblioteki}{31}}
\@writefile{toc}{\contentsline {subsection}{\numberline {5.1}Gengetopt}{31}}
\@writefile{lol}{\contentsline {lstlisting}{\numberline {10}Plik wej\IeC {\'s}ciowy dla \textit  {Gengetopt}}{31}}
\@writefile{lol}{\contentsline {lstlisting}{\numberline {11}Struktura wygenerowana dla \textit  {fsc}}{32}}
\@writefile{toc}{\contentsline {subsection}{\numberline {5.2}FUSE}{33}}
\@writefile{lol}{\contentsline {lstlisting}{\numberline {12}Funkcje do zaimplementowania w wysokopoziomowym API FUSE}{34}}
\@writefile{toc}{\contentsline {subsection}{\numberline {5.3}JSON}{35}}
\@writefile{lol}{\contentsline {lstlisting}{\numberline {13}Plik do testowania bibliotek obs\IeC {\l }uguj\IeC {\k a}cych format JSON}{35}}
\@writefile{toc}{\contentsline {subsubsection}{\numberline {5.3.1}cJSON}{36}}
\@writefile{lol}{\contentsline {lstlisting}{\numberline {14}Uproszczony kod z wykorzystaniem biblioteki \textit  {cJSON}}{36}}
\@writefile{toc}{\contentsline {subsubsection}{\numberline {5.3.2}Frozen}{37}}
\@writefile{lol}{\contentsline {lstlisting}{\numberline {15}Uproszczony kod z wykorzystaniem biblioteki \textit  {Frozen}}{38}}
\@writefile{toc}{\contentsline {subsubsection}{\numberline {5.3.3}Jansson}{38}}
\@writefile{lol}{\contentsline {lstlisting}{\numberline {16}Uproszczony kod z wykorzystaniem biblioteki \textit  {Jansson}}{39}}
\@writefile{toc}{\contentsline {subsubsection}{\numberline {5.3.4}JSON-C}{40}}
\@writefile{lol}{\contentsline {lstlisting}{\numberline {17}Uproszczony kod z wykorzystaniem biblioteki \textit  {JSON-C}}{40}}
\@writefile{toc}{\contentsline {subsubsection}{\numberline {5.3.5}Json-parser}{41}}
\@writefile{lol}{\contentsline {lstlisting}{\numberline {18}Uproszczony kod z wykorzystaniem biblioteki \textit  {Json-parser}}{41}}
\@writefile{toc}{\contentsline {subsubsection}{\numberline {5.3.6}Microjson}{42}}
\@writefile{lol}{\contentsline {lstlisting}{\numberline {19}Uproszczony kod z wykorzystaniem biblioteki \textit  {Microjson}}{43}}
\@writefile{toc}{\contentsline {subsubsection}{\numberline {5.3.7}Mjson}{44}}
\@writefile{lol}{\contentsline {lstlisting}{\numberline {20}Uproszczony kod z wykorzystaniem biblioteki \textit  {Mjson}}{44}}
\@writefile{toc}{\contentsline {subsubsection}{\numberline {5.3.8}NXJSON}{45}}
\@writefile{lol}{\contentsline {lstlisting}{\numberline {21}Uproszczony kod z wykorzystaniem biblioteki \textit  {NXJSON}}{45}}
\@writefile{toc}{\contentsline {subsubsection}{\numberline {5.3.9}OjC}{46}}
\@writefile{lol}{\contentsline {lstlisting}{\numberline {22}Uproszczony kod z wykorzystaniem biblioteki \textit  {OjC}}{46}}
\@writefile{toc}{\contentsline {subsubsection}{\numberline {5.3.10}Parson}{47}}
\@writefile{lol}{\contentsline {lstlisting}{\numberline {23}Uproszczony kod z wykorzystaniem biblioteki \textit  {Parson}}{47}}
\@writefile{toc}{\contentsline {subsubsection}{\numberline {5.3.11}YAJL}{49}}
\@writefile{lol}{\contentsline {lstlisting}{\numberline {24}Uproszczony kod z wykorzystaniem biblioteki \textit  {YAJL}}{49}}
\@writefile{toc}{\contentsline {subsubsection}{\numberline {5.3.12}Wyb\IeC {\'o}r}{50}}
\@writefile{toc}{\contentsline {subsection}{\numberline {5.4}OpenSSL}{50}}
\@writefile{lol}{\contentsline {lstlisting}{\numberline {25}Kod pogl\IeC {\k a}dowy licz\IeC {\k a}cy sum\IeC {\k e} MD5}{51}}
\@writefile{lol}{\contentsline {lstlisting}{\numberline {26}Kod podgl\IeC {\k a}dowy licz\IeC {\k a}cy sum\IeC {\k e} SHA-1}{51}}
\@writefile{toc}{\contentsline {subsection}{\numberline {5.5}Magic}{52}}
\@writefile{toc}{\contentsline {section}{\numberline {6}Podsumowanie}{53}}
