\relax 
\catcode `"\active 
\select@language{polish}
\@writefile{toc}{\select@language{polish}}
\@writefile{lof}{\select@language{polish}}
\@writefile{lot}{\select@language{polish}}
\@writefile{toc}{\contentsline {section}{\numberline {1}Wprowadzenie}{7}}
\@writefile{toc}{\contentsline {subsection}{\numberline {1.1}Historia kostki Rubika}{7}}
\@writefile{lof}{\contentsline {figure}{\numberline {1}{\ignorespaces Wsp\IeC {\'o}\IeC {\l }czesny model kostki Rubika}}{7}}
\@writefile{toc}{\contentsline {subsection}{\numberline {1.2}Podobne projekty}{8}}
\@writefile{toc}{\contentsline {subsubsection}{\numberline {1.2.1}Puzzle Facade}{8}}
\@writefile{lof}{\contentsline {figure}{\numberline {2}{\ignorespaces Kostka Puzzle Facade autorstwa Javiera Lloreta}}{8}}
\@writefile{lof}{\contentsline {figure}{\numberline {3}{\ignorespaces Budynek Ars Electronica}}{9}}
\@writefile{toc}{\contentsline {subsubsection}{\numberline {1.2.2}Rubikon}{9}}
\@writefile{lof}{\contentsline {figure}{\numberline {4}{\ignorespaces Rdze\IeC {\'n} kostki Rubikon}}{9}}
\@writefile{lof}{\contentsline {figure}{\numberline {5}{\ignorespaces Gotowa kostka Rubikon}}{10}}
\@writefile{toc}{\contentsline {section}{\numberline {2}Budowa urz\IeC {\k a}dzenia}{10}}
\@writefile{toc}{\contentsline {subsection}{\numberline {2.1}Enkodery obrotowe}{11}}
\@writefile{lof}{\contentsline {figure}{\numberline {6}{\ignorespaces Rysunek pogl\IeC {\k a}dowy wykorzystania rolek od myszy komputerowych}}{11}}
\@writefile{lof}{\contentsline {figure}{\numberline {7}{\ignorespaces Przyk\IeC {\l }adowy potencjometr}}{11}}
\@writefile{lof}{\contentsline {figure}{\numberline {8}{\ignorespaces Mechaniczne enkodery obrotowe}}{12}}
\@writefile{lof}{\contentsline {figure}{\numberline {9}{\ignorespaces Schemat dzia\IeC {\l }ania mechanicznego enkodera obrotowego}}{12}}
\@writefile{toc}{\contentsline {subsection}{\numberline {2.2}\IeC {\.Z}yroskop tr\IeC {\'o}josiowy}{13}}
\@writefile{lof}{\contentsline {figure}{\numberline {10}{\ignorespaces Urz\IeC {\k a}dzenie obrazuj\IeC {\k a}ce zasad\IeC {\k e} dzia\IeC {\l }ania \IeC {\.z}yroskopu}}{13}}
\@writefile{lof}{\contentsline {figure}{\numberline {11}{\ignorespaces Modu\IeC {\l } z \IeC {\.z}yroskopem MPU-6050}}{13}}
\@writefile{toc}{\contentsline {subsection}{\numberline {2.3}Mikrokontroler ATmega328p}{14}}
\@writefile{lof}{\contentsline {figure}{\numberline {12}{\ignorespaces P\IeC {\l }ytka stykowa z klonem modu\IeC {\l }u Arduino Pro Mini, enkoderem obrotowym, modu\IeC {\l }ami bluetooth i zasilaj\IeC {\k a}cym oraz pod\IeC {\l }\IeC {\k a}czonym programatorem USBasp}}{14}}
\@writefile{lof}{\contentsline {figure}{\numberline {13}{\ignorespaces Oryginalne Arduino Pro Mini}}{14}}
\@writefile{lof}{\contentsline {figure}{\numberline {14}{\ignorespaces Mikrokontroler ATmega328p-PU}}{15}}
\@writefile{lof}{\contentsline {figure}{\numberline {15}{\ignorespaces Mikrokontroler ATmega328p-AU}}{16}}
\@writefile{toc}{\contentsline {subsection}{\numberline {2.4}Chip bluetooth HC-06}{16}}
\@writefile{lof}{\contentsline {figure}{\numberline {16}{\ignorespaces Modu\IeC {\l } bluetooth HC-06}}{16}}
\@writefile{lof}{\contentsline {figure}{\numberline {17}{\ignorespaces Schemat po\IeC {\l }\IeC {\k a}czenia mikrokontrolera z modu\IeC {\l }em bluetooth}}{17}}
\@writefile{lof}{\contentsline {figure}{\numberline {18}{\ignorespaces Chip bluetooth HC-06}}{17}}
\@writefile{toc}{\contentsline {subsection}{\numberline {2.5}P\IeC {\l }ytka drukowana}{17}}
\@writefile{lof}{\contentsline {figure}{\numberline {19}{\ignorespaces P\IeC {\l }ytka stykowa z mikrokontrolerem ATmega328p-PU, enkoderem obrotowym, modu\IeC {\l }ami bluetooth i zasilaj\IeC {\k a}cym oraz pod\IeC {\l }\IeC {\k a}czonym programatorem USBasp}}{18}}
\@writefile{lof}{\contentsline {figure}{\numberline {20}{\ignorespaces Schemat po\IeC {\l }\IeC {\k a}cze\IeC {\'n} na p\IeC {\l }ytce wykonany w programie Eagle}}{18}}
\@writefile{lof}{\contentsline {figure}{\numberline {21}{\ignorespaces Projekt p\IeC {\l }ytki drukowanej wykonany w programie Eagle}}{19}}
\@writefile{lof}{\contentsline {figure}{\numberline {22}{\ignorespaces Czysta p\IeC {\l }ytka drukowana oraz p\IeC {\l }ytka drukowana z przylutowanym mikrokontrolerem ATmega328p-AU, chipem bluetooth oraz po\IeC {\l }\IeC {\k a}czeniami do zasilania, programatora i jednego enkodera obrotowego}}{19}}
\@writefile{toc}{\contentsline {subsection}{\numberline {2.6}Zasilanie}{19}}
\@writefile{lof}{\contentsline {figure}{\numberline {23}{\ignorespaces Modu\IeC {\l } zasilania do p\IeC {\l }ytki stykowej}}{20}}
\@writefile{toc}{\contentsline {subsection}{\numberline {2.7}Wybrany model kostki}{20}}
\@writefile{lof}{\contentsline {figure}{\numberline {24}{\ignorespaces Kostka Rubika typu void}}{20}}
\@writefile{lof}{\contentsline {figure}{\numberline {25}{\ignorespaces Kostka The Void}}{21}}
\@writefile{lof}{\contentsline {figure}{\numberline {26}{\ignorespaces Kostka The Void ze zdemontowan\IeC {\k a} jedn\IeC {\k a} \IeC {\'s}ciank\IeC {\k a}}}{21}}
\@writefile{toc}{\contentsline {subsection}{\numberline {2.8}Elementy w\IeC {\l }asne}{22}}
\@writefile{lof}{\contentsline {figure}{\numberline {27}{\ignorespaces Pi\IeC {\l }eczka do tenisa sto\IeC {\l }owego z otworami na enkodery}}{22}}
\@writefile{lof}{\contentsline {figure}{\numberline {28}{\ignorespaces Uchwyty z nakr\IeC {\k e}tek od mleka}}{22}}
\@writefile{lof}{\contentsline {figure}{\numberline {29}{\ignorespaces Obr\IeC {\'o}t boczn\IeC {\k a} \IeC {\'s}ciank\IeC {\k a} przy zamontowanym uchwycie}}{23}}
\@writefile{lof}{\contentsline {figure}{\numberline {30}{\ignorespaces Wydrukowany uchwyt}}{23}}
\@writefile{lof}{\contentsline {figure}{\numberline {31}{\ignorespaces P\IeC {\l }ytka drukowana wewn\IeC {\k a}trz kostki z uchwytami wykonanymi przeze mnie}}{24}}
\@writefile{toc}{\contentsline {section}{\numberline {3}Oprogramowanie}{24}}
\@writefile{toc}{\contentsline {subsection}{\numberline {3.1}Mikrokontroler}{24}}
\@writefile{lol}{\contentsline {lstlisting}{\numberline {1}Pocz\IeC {\k a}tkowy fragment oprogramowania mojego kontrolera}{24}}
\@writefile{lol}{\contentsline {lstlisting}{\numberline {2}Fragment funkcji g\IeC {\l }\IeC {\'o}wnej}{25}}
\@writefile{toc}{\contentsline {subsection}{\numberline {3.2}Komunikacja z komputerem}{25}}
\@writefile{lof}{\contentsline {figure}{\numberline {32}{\ignorespaces Okno programu Blueman}}{25}}
\@writefile{toc}{\contentsline {subsection}{\numberline {3.3}Enkodery obrotowe}{26}}
\@writefile{lof}{\contentsline {figure}{\numberline {33}{\ignorespaces Filtr na enkoderze obrotowym}}{26}}
\@writefile{lol}{\contentsline {lstlisting}{\numberline {3}Uruchamianie zegara}{27}}
\@writefile{lol}{\contentsline {lstlisting}{\numberline {4}Obs\IeC {\l }uga przerwania na porcie C z uwzgl\IeC {\k e}dnieniem pauzy 1s}{27}}
\@writefile{lol}{\contentsline {lstlisting}{\numberline {5}Obs\IeC {\l }uga przekroczenia wielko\IeC {\'s}ci rejestru (ang. overflow) dla danego zegara}{27}}
\@writefile{toc}{\contentsline {subsection}{\numberline {3.4}\IeC {\.Z}yroskop tr\IeC {\'o}josiowy}{28}}
\@writefile{lot}{\contentsline {table}{\numberline {1}{\ignorespaces Macierz obrotu oparta na kwaternionie (x, y, z, w)}}{28}}
\@writefile{toc}{\contentsline {section}{\numberline {4}Podsumowanie}{29}}
\@writefile{lof}{\contentsline {figure}{\numberline {34}{\ignorespaces Ko\IeC {\'n}cowy projekt kontrolera}}{29}}
